^C:\USERS\MAGSHIMIM\SOURCE\REPOS\PROJECT5\STREAM\FILESTREAM.CPP
/c /Zi /nologo /W3 /WX- /diagnostics:classic /sdl /O2 /Oi /Oy- /GL /D _MBCS /Gm- /EHsc /MD /GS /Gy /fp:precise /permissive- /Zc:wchar_t /Zc:forScope /Zc:inline /Fo"RELEASE\\" /Fd"RELEASE\STREAM.PDB" /Gd /TP /analyze- /FC C:\USERS\MAGSHIMIM\SOURCE\REPOS\PROJECT5\STREAM\FILESTREAM.CPP
^C:\USERS\MAGSHIMIM\SOURCE\REPOS\PROJECT5\STREAM\MAIN.CPP
/c /Zi /nologo /W3 /WX- /diagnostics:classic /sdl /O2 /Oi /Oy- /GL /D _MBCS /Gm- /EHsc /MD /GS /Gy /fp:precise /permissive- /Zc:wchar_t /Zc:forScope /Zc:inline /Fo"RELEASE\\" /Fd"RELEASE\STREAM.PDB" /Gd /TP /analyze- /FC C:\USERS\MAGSHIMIM\SOURCE\REPOS\PROJECT5\STREAM\MAIN.CPP
^C:\USERS\MAGSHIMIM\SOURCE\REPOS\PROJECT5\STREAM\OUTSTREAM.CPP
/c /Zi /nologo /W3 /WX- /diagnostics:classic /sdl /O2 /Oi /Oy- /GL /D _MBCS /Gm- /EHsc /MD /GS /Gy /fp:precise /permissive- /Zc:wchar_t /Zc:forScope /Zc:inline /Fo"RELEASE\\" /Fd"RELEASE\STREAM.PDB" /Gd /TP /analyze- /FC C:\USERS\MAGSHIMIM\SOURCE\REPOS\PROJECT5\STREAM\OUTSTREAM.CPP
