^C:\USERS\MAGSHIMIM\SOURCE\REPOS\PROJECT4\PROJECT4\FILESTREAM.CPP
/c /ZI /nologo /W3 /WX- /diagnostics:classic /sdl /Od /Oy- /D _MBCS /Gm- /EHsc /RTC1 /MDd /GS /fp:precise /permissive- /Zc:wchar_t /Zc:forScope /Zc:inline /Fo"DEBUG\\" /Fd"DEBUG\VC141.PDB" /Gd /TP /analyze- /FC C:\USERS\MAGSHIMIM\SOURCE\REPOS\PROJECT4\PROJECT4\FILESTREAM.CPP
^C:\USERS\MAGSHIMIM\SOURCE\REPOS\PROJECT4\PROJECT4\LOGGER.CPP
/c /ZI /nologo /W3 /WX- /diagnostics:classic /sdl /Od /Oy- /D _MBCS /Gm- /EHsc /RTC1 /MDd /GS /fp:precise /permissive- /Zc:wchar_t /Zc:forScope /Zc:inline /Fo"DEBUG\\" /Fd"DEBUG\VC141.PDB" /Gd /TP /analyze- /FC C:\USERS\MAGSHIMIM\SOURCE\REPOS\PROJECT4\PROJECT4\LOGGER.CPP
^C:\USERS\MAGSHIMIM\SOURCE\REPOS\PROJECT4\PROJECT4\OUTSTREAM.CPP
/c /ZI /nologo /W3 /WX- /diagnostics:classic /sdl /Od /Oy- /D _MBCS /Gm- /EHsc /RTC1 /MDd /GS /fp:precise /permissive- /Zc:wchar_t /Zc:forScope /Zc:inline /Fo"DEBUG\\" /Fd"DEBUG\VC141.PDB" /Gd /TP /analyze- /FC C:\USERS\MAGSHIMIM\SOURCE\REPOS\PROJECT4\PROJECT4\OUTSTREAM.CPP
^C:\USERS\MAGSHIMIM\SOURCE\REPOS\PROJECT4\PROJECT4\OUTSTREAMENCRYPTED.CPP
/c /ZI /nologo /W3 /WX- /diagnostics:classic /sdl /Od /Oy- /D _MBCS /Gm- /EHsc /RTC1 /MDd /GS /fp:precise /permissive- /Zc:wchar_t /Zc:forScope /Zc:inline /Fo"DEBUG\\" /Fd"DEBUG\VC141.PDB" /Gd /TP /analyze- /FC C:\USERS\MAGSHIMIM\SOURCE\REPOS\PROJECT4\PROJECT4\OUTSTREAMENCRYPTED.CPP
^C:\USERS\MAGSHIMIM\SOURCE\REPOS\PROJECT4\PROJECT4\MAIN.CPP
/c /ZI /nologo /W3 /WX- /diagnostics:classic /sdl /Od /Oy- /D _MBCS /Gm- /EHsc /RTC1 /MDd /GS /fp:precise /permissive- /Zc:wchar_t /Zc:forScope /Zc:inline /Fo"DEBUG\\" /Fd"DEBUG\VC141.PDB" /Gd /TP /analyze- /FC C:\USERS\MAGSHIMIM\SOURCE\REPOS\PROJECT4\PROJECT4\MAIN.CPP
