^C:\USERS\MAGSHIMIM\SOURCE\REPOS\PROJECT5\STREAM\DEBUG\FILESTREAM.OBJ|C:\USERS\MAGSHIMIM\SOURCE\REPOS\PROJECT5\STREAM\DEBUG\MAIN.OBJ|C:\USERS\MAGSHIMIM\SOURCE\REPOS\PROJECT5\STREAM\DEBUG\OUTSTREAM.OBJ
C:\USERS\MAGSHIMIM\SOURCE\REPOS\PROJECT5\DEBUG\STREAM.LIB
^C:\USERS\MAGSHIMIM\DOCUMENTS\MAGSHIMIM\GIT\HOMEWORK-04\HW04MAORGELMAN\LIBRARIES\STREAM\DEBUG\FILESTREAM.OBJ|C:\USERS\MAGSHIMIM\DOCUMENTS\MAGSHIMIM\GIT\HOMEWORK-04\HW04MAORGELMAN\LIBRARIES\STREAM\DEBUG\MAIN.OBJ|C:\USERS\MAGSHIMIM\DOCUMENTS\MAGSHIMIM\GIT\HOMEWORK-04\HW04MAORGELMAN\LIBRARIES\STREAM\DEBUG\OUTSTREAM.OBJ
C:\USERS\MAGSHIMIM\DOCUMENTS\MAGSHIMIM\GIT\HOMEWORK-04\HW04MAORGELMAN\LIBRARIES\DEBUG\STREAM.LIB
