^C:\USERS\MAGSHIMIM\SOURCE\REPOS\PROJECT5\STREAM\DEBUG\FILESTREAM.OBJ|C:\USERS\MAGSHIMIM\SOURCE\REPOS\PROJECT5\STREAM\DEBUG\MAIN.OBJ|C:\USERS\MAGSHIMIM\SOURCE\REPOS\PROJECT5\STREAM\DEBUG\OUTSTREAM.OBJ
C:\USERS\MAGSHIMIM\SOURCE\REPOS\PROJECT5\STREAM\DEBUG\FILESTREAM.OBJ
C:\WINDOWS\SYSTEM32\TZRES.DLL
C:\USERS\MAGSHIMIM\SOURCE\REPOS\PROJECT5\STREAM\DEBUG\MAIN.OBJ
C:\USERS\MAGSHIMIM\SOURCE\REPOS\PROJECT5\STREAM\DEBUG\OUTSTREAM.OBJ
C:\WINDOWS\GLOBALIZATION\SORTING\SORTDEFAULT.NLS
^C:\USERS\MAGSHIMIM\DOCUMENTS\MAGSHIMIM\GIT\HOMEWORK-04\HW04MAORGELMAN\LIBRARIES\STREAM\DEBUG\FILESTREAM.OBJ|C:\USERS\MAGSHIMIM\DOCUMENTS\MAGSHIMIM\GIT\HOMEWORK-04\HW04MAORGELMAN\LIBRARIES\STREAM\DEBUG\MAIN.OBJ|C:\USERS\MAGSHIMIM\DOCUMENTS\MAGSHIMIM\GIT\HOMEWORK-04\HW04MAORGELMAN\LIBRARIES\STREAM\DEBUG\OUTSTREAM.OBJ
C:\USERS\MAGSHIMIM\DOCUMENTS\MAGSHIMIM\GIT\HOMEWORK-04\HW04MAORGELMAN\LIBRARIES\STREAM\DEBUG\FILESTREAM.OBJ
C:\WINDOWS\SYSTEM32\TZRES.DLL
C:\USERS\MAGSHIMIM\DOCUMENTS\MAGSHIMIM\GIT\HOMEWORK-04\HW04MAORGELMAN\LIBRARIES\STREAM\DEBUG\MAIN.OBJ
C:\USERS\MAGSHIMIM\DOCUMENTS\MAGSHIMIM\GIT\HOMEWORK-04\HW04MAORGELMAN\LIBRARIES\STREAM\DEBUG\OUTSTREAM.OBJ
C:\WINDOWS\GLOBALIZATION\SORTING\SORTDEFAULT.NLS
