^C:\USERS\MAGSHIMIM\SOURCE\REPOS\PROJECT5\PROJECT1\MAIN.CPP
C:\USERS\MAGSHIMIM\SOURCE\REPOS\PROJECT5\PROJECT1\DEBUG\VC141.PDB
C:\USERS\MAGSHIMIM\SOURCE\REPOS\PROJECT5\PROJECT1\DEBUG\VC141.IDB
C:\USERS\MAGSHIMIM\SOURCE\REPOS\PROJECT5\PROJECT1\DEBUG\MAIN.OBJ
^C:\USERS\MAGSHIMIM\DOCUMENTS\MAGSHIMIM\GIT\HOMEWORK-04\HW04MAORGELMAN\LIBRARIES\PROJECT1\MAIN.CPP
C:\USERS\MAGSHIMIM\DOCUMENTS\MAGSHIMIM\GIT\HOMEWORK-04\HW04MAORGELMAN\LIBRARIES\PROJECT1\DEBUG\VC141.PDB
C:\USERS\MAGSHIMIM\DOCUMENTS\MAGSHIMIM\GIT\HOMEWORK-04\HW04MAORGELMAN\LIBRARIES\PROJECT1\DEBUG\VC141.IDB
C:\USERS\MAGSHIMIM\DOCUMENTS\MAGSHIMIM\GIT\HOMEWORK-04\HW04MAORGELMAN\LIBRARIES\PROJECT1\DEBUG\MAIN.OBJ
