^C:\USERS\MAGSHIMIM\SOURCE\REPOS\PROJECT5\PROJECT1\DEBUG\MAIN.OBJ
/OUT:"C:\USERS\MAGSHIMIM\SOURCE\REPOS\PROJECT5\DEBUG\PROJECT1.EXE" /INCREMENTAL /NOLOGO KERNEL32.LIB USER32.LIB GDI32.LIB WINSPOOL.LIB COMDLG32.LIB ADVAPI32.LIB SHELL32.LIB OLE32.LIB OLEAUT32.LIB UUID.LIB ODBC32.LIB ODBCCP32.LIB /MANIFEST /MANIFESTUAC:"level='asInvoker' uiAccess='false'" /manifest:embed /DEBUG:FASTLINK /PDB:"C:\USERS\MAGSHIMIM\SOURCE\REPOS\PROJECT5\DEBUG\PROJECT1.PDB" /TLBID:1 /DYNAMICBASE /NXCOMPAT /IMPLIB:"C:\USERS\MAGSHIMIM\SOURCE\REPOS\PROJECT5\DEBUG\PROJECT1.LIB" /MACHINE:X86 DEBUG\MAIN.OBJ
^C:\USERS\MAGSHIMIM\DOCUMENTS\MAGSHIMIM\GIT\HOMEWORK-04\HW04MAORGELMAN\LIBRARIES\PROJECT1\DEBUG\MAIN.OBJ
/OUT:"C:\USERS\MAGSHIMIM\DOCUMENTS\MAGSHIMIM\GIT\HOMEWORK-04\HW04MAORGELMAN\LIBRARIES\DEBUG\PROJECT1.EXE" /INCREMENTAL /NOLOGO KERNEL32.LIB USER32.LIB GDI32.LIB WINSPOOL.LIB COMDLG32.LIB ADVAPI32.LIB SHELL32.LIB OLE32.LIB OLEAUT32.LIB UUID.LIB ODBC32.LIB ODBCCP32.LIB /MANIFEST /MANIFESTUAC:"level='asInvoker' uiAccess='false'" /manifest:embed /DEBUG:FASTLINK /PDB:"C:\USERS\MAGSHIMIM\DOCUMENTS\MAGSHIMIM\GIT\HOMEWORK-04\HW04MAORGELMAN\LIBRARIES\DEBUG\PROJECT1.PDB" /TLBID:1 /DYNAMICBASE /NXCOMPAT /IMPLIB:"C:\USERS\MAGSHIMIM\DOCUMENTS\MAGSHIMIM\GIT\HOMEWORK-04\HW04MAORGELMAN\LIBRARIES\DEBUG\PROJECT1.LIB" /MACHINE:X86 DEBUG\MAIN.OBJ
